100.0,0.0,0.0,0.0,0.0,8.723978958837003,24.962423763544948,67.95048520766728,-129.66682197491932,47.634658506380305,2.2381963205747053,-52.73320182055511,47.43542727998374,-94.28796006446585,-104.81840920248209
100.0,0.0024329846218527,0.018601799352441883,0.24329846218527,1.8601799352441883,8.723978958837003,23.59660202332251,68.24682571675046,-136.58217402224363,29.63405090831792,2.2381963205747053,-53.51523967910434,46.257759141692596,-78.20378585492324,-117.7668138291145
100.0,0.006950901652033707,0.055948640826351634,0.4517917030181007,3.7346841473909747,8.723978958837003,22.164724266208612,68.3608750160743,-143.1877757113899,11.404929932383126,2.2381963205747053,-54.13295859152179,44.953113967824734,-61.771891241744946,-130.46451738678627
100.0,0.013206511230602902,0.11227638198460958,0.6255609578569193,5.632774115825795,8.723978958837003,20.669647242865018,68.28942789348343,-149.50770233435952,-7.144712259086557,2.2381963205747053,-54.581979248789736,43.52344710388475,-44.90206572679469,-142.96668639399843
100.0,0.02084597262512781,0.18791951486410022,0.7639461394524909,7.564313287949064,8.723978958837003,19.114044709776866,68.02828019234484,-155.56025330881502,-26.11477011386023,2.2381963205747053,-54.85691415303099,41.97020067998794,-27.4934904241259,-155.32464238968095
100.0,0.029500671207355163,0.28332014795335336,0.8654698582227351,9.540063308925312,8.723978958837003,17.500464968040184,67.57211857132148,-161.3579741736683,-45.616162102334904,2.2381963205747053,-54.95122672943827,40.29433199784753,-9.431257640727576,-167.58686821404117
100.0,0.038777740837669265,0.39904056175347746,0.9277069630314104,11.572041380012408,8.723978958837003,15.831391914610855,66.91437138279241,-166.90730534293297,-65.77471885290687,2.2381963205747053,-54.85704584131968,38.49633380488217,9.418088811858375,-179.79981929653573
100.0,0.04824856096262477,0.5357802526029167,0.9470820124955505,13.67396908494392,8.723978958837003,14.109314246237416,66.04700968548059,-172.20776683734394,-86.73616973118179,2.2381963205747053,-54.56492159499034,36.57624840342132,29.2124246329347,-192.00854014608524
100.0,0.05743421941095883,0.6943988113404138,0.9185658448334065,15.861855873749706,8.723978958837003,12.33680911099022,64.96028235013331,-177.25051352471945,-108.67273353472827,2.2381963205747053,-54.06350188904914,34.533677956402826,50.1419705941196,-204.25704470184934
100.0,0.06578646287287956,0.8759466230756072,0.8352243461920731,18.154781173519343,8.723978958837003,10.516649348561623,63.64236160679317,-182.01597624285972,-131.7920743340142,2.2381963205747053,-53.339099302260855,32.367794433368175,72.4402586788289,-216.58835230346517
100.0,0.07266188407174838,1.0817063551018284,0.6875421198868811,20.575973202622116,8.723978958837003,8.6519483251104,62.07886355482158,-186.47010234512237,-156.34980519715958,2.2381963205747053,-52.375102339708,30.07735492153511,96.39969625528576,-229.0439511833063
100.0,0.07728578851659706,1.3132497544639372,0.46239044448486843,23.154339936210867,8.723978958837003,6.746364822103277,60.25218916394192,-190.55835030071233,-182.66743908796565,2.2381963205747053,-51.151159651445354,27.660732604424915,122.39426882626434,-241.66223171101961
100.0,0.07869990174857962,1.572516827052049,0.14141132319825478,25.926707258811195,8.723978958837003,4.804405575777463,58.140599697394954,-194.19592463258135,-211.1589466546964,2.2381963205747053,-49.642022883135695,25.115982922084466,150.91367683096604,-254.47496823404498
100.0,0.07568392398127406,1.8619288153761204,-0.3015977767305555,28.94119883240713,8.723978958837003,2.8318912700615,55.716885796217646,-197.2514305715963,-242.37139011773107,2.2381963205747053,-47.81585816307233,22.440983461982324,182.61647200633703,-267.49994601021433
100.0,0.06663299546407099,2.1845541180178762,-0.9050928517203067,32.26253026417557,8.723978958837003,0.8367069960824551,52.946390378503494,-199.51842739790447,-277.0495417714152,2.2381963205747053,-45.63169651765049,19.63372715941006,218.4161645421838,-280.7256302572262
100.0,0.04935702118088431,2.5443607213410915,-1.7275974283186681,35.98066033232152,8.723978958837003,-1.169927081953484,49.78395612708793,-200.6634078035939,-316.24342514155614,2.2381963205747053,-43.035420698956905,16.692941940255988,259.62758186935866,-294.0785219154074
100.0,0.02073268323654796,2.9466172463615496,-2.8624337944336347,40.2256525020458,8.723978958837003,-3.1711726447558988,46.16898247155584,-200.12455628024148,-361.4973655532088,2.2381963205747053,-39.95311643736113,13.619439171959135,308.23042615957735,-307.35027682968536
100.0,-0.023944662940188998,3.3985650776973064,-4.467734617673695,45.19478313357568,8.723978958837003,-5.140157658096749,42.01692704216451,-196.89850133408498,-415.20554293913324,2.2381963205747053,-36.27932676567545,10.419209121252061,367.37896716856795,-320.02300507070737
100.0,-0.09228485950901008,3.91062225159032,-6.834019656882107,51.2057173893014,8.723978958837003,-7.03058218146695,37.20352381853958,-189.04245233702005,-481.34032236249277,2.2381963205747053,-31.854519427551587,7.111146700283299,442.4807338123862,-330.80624209687625
100.0,-0.19786647232632693,4.498725419661755,-10.558161281731683,58.81031680714351,8.723978958837003,-8.753964495471033,31.532325728232177,-172.33823140040835,-567.1198090307403,2.2381963205747053,-26.416901513222392,3.7489268093948813,543.7617914329195,-336.2219890888417
100.0,-0.3687074300765568,5.189345257367296,-17.084095775022988,69.06198377055404,8.723978958837003,-10.113129590252115,24.657928087456924,-135.9165094781081,-687.4397640775255,2.2381963205747053,-19.483207894736957,0.49617926277796354,693.3693618485433,-325.27475466169176
100.0,-0.6780399974945903,6.030780856315781,-30.933256741803348,84.14355989484856,8.723978958837003,-10.540029907493407,15.865792246928033,-42.69003172412927,-879.213584052889,2.2381963205747053,-9.995626303640321,-2.0199342523386266,948.7581591096634,-251.611351511659
100.0,-1.4174997759884684,7.093276883371224,-73.94597784938782,106.24960270554425,8.723978958837003,-7.314676496574037,3.363646085757976,322.5353410919369,-1250.2146161170056,2.2381963205747053,4.473884856491495,0.04800460959966246,1446.9511160131815,206.79388619382888
100.0,-2.5395672566765954,7.6727136795945565,-112.20674806881271,57.94367962233331,8.723978958837003,1.9515282198084076,-5.4492790783183676,926.6204716382445,-881.2925164076344,2.2381963205747053,12.492000609454394,9.318723934480653,801.8115752962899,927.071932488099
100.0,-3.4174712107874,7.833710263040302,-87.79039541108047,16.09965834457455,8.723978958837003,9.573814806743592,-9.288292100709642,762.2286586935184,-383.90130223912735,2.2381963205747053,16.008792955810705,17.89768821751253,351.6792346356311,857.8964283031879
100.0,-4.139702031003878,7.8657647199100635,-72.22308202164783,3.2054456869761516,8.723978958837003,15.894191608656813,-11.374827938657393,632.0376801913221,-208.65358379477522,2.2381963205747053,17.64483883685419,25.40687975392762,163.60458810434878,750.919153641509
100.0,-4.758096647035611,7.837442211175008,-61.839461603173255,-2.832250873505548,8.723978958837003,21.280565243401096,-12.54710383590044,538.6373634744283,-117.22758972430465,2.2381963205747053,18.282135671597914,32.050066861993,63.72968347437234,664.3187108065381
100.0,-5.299862185570436,7.774457058021447,-54.176553853482545,-6.298515315356156,8.723978958837003,25.946132355815404,-13.144502177062453,466.55671124143095,-59.739834116201166,2.2381963205747053,18.305274220557934,38.00119883304062,2.313854896002134,595.1131971047619
100.0,-5.780990587580836,7.689139328901967,-48.11284020103989,-8.53177291194803,8.723978958837003,30.022757855696042,-13.340158898094653,407.66254998806363,-19.565672103220095,2.2381963205747053,17.91477639267071,43.38422699986825,-39.04978278872237,538.3028166827625
100.0,-6.211745473198445,7.588354103594317,-43.07548856176098,-10.078522530765019,8.723978958837003,33.59787967666669,-13.23556730847975,357.5121820970654,10.45915896149043,2.2381963205747053,17.22839562967133,48.28802538875606,-68.63807629993796,490.37983888878153
100.0,-6.599138339862298,7.476328005793673,-38.7392866663853,-11.202609780064428,8.723978958837003,36.732582461360536,-12.89600419527706,313.47027846938454,33.95631132026895,2.2381963205747053,16.321303445924602,52.77818741791267,-90.70921837467255,449.01620291566087
100.0,-6.948175465295675,7.355860049818604,-34.90371254333764,-12.04679559750682,8.723978958837003,39.47115667984094,-12.366343274314907,273.8574218480399,52.96609209621522,2.2381963205747053,15.244540334334616,56.904563906861114,-107.67631115899857,412.6376488948441
100.0,-7.262543411819242,7.228910883280013,-31.436794652356703,-12.694916653859183,8.723978958837003,41.84653683104895,-11.679031810041929,237.5380151208015,68.73114642729784,2.2381963205747053,14.034446429829377,60.70602744708584,-121.0093904505239,380.1463540224721
100.0,-7.545012445808096,7.09691799097172,-28.24690339888538,-13.199289230829269,8.723978958837003,43.88358385560917,-10.85849502280767,203.70470245602132,82.05367872342588,2.2381963205747053,12.717891723236328,64.21355683538619,-131.65547065930483,350.7529388300344
100.0,-7.7976867008166275,6.960977223401495,-25.267425500853157,-13.594076757022481,8.723978958837003,45.60115922599478,-9.923744988791194,171.75753703856077,93.47500340164753,2.2381963205747053,11.31536872722231,67.45229548802808,-140.25229960140166,323.87386526418976
100.0,-8.022165480768221,6.821953858014625,-22.447877995159367,-13.902336538686995,8.723978958837003,47.013479869862195,-8.890016713019607,141.23206438674163,103.37282757715862,2.2381963205747053,9.842918132353445,70.44296639447371,-147.24505948688653,299.06709064456265
100.0,-8.21965004608477,6.68055421147844,-19.748456531654828,-14.139964653618495,8.723978958837003,48.13102123797369,-7.76984534704812,111.75413681114969,112.01713659714868,2.2381963205747053,8.313379933893184,73.20287131298461,-152.95381984602602,275.99049185109044
100.0,-8.391015150277983,6.5373741441706645,-17.136510419321407,-14.318006730777523,8.723978958837003,48.961121172497215,-6.573807593669677,83.00999345235239,119.60377533784423,2.2381963205747053,6.737235862277339,75.74661347320003,-157.61440716158447,254.3742160215421
100.0,-8.536856532162254,6.392933620610482,-14.584138188427033,-14.44405235601823,8.723978958837003,49.50837425837939,-5.311054828342863,54.72530858821788,126.27527653268142,2.2381963205747053,5.123194188027538,78.08663144217991,-161.40416742498016,234.00179689798782
100.0,-8.657520983855811,6.247702789272512,-12.066445169355726,-14.523083133797043,8.723978958837003,49.77486953632337,-3.9897151117999416,26.649527794398395,132.13397165429214,2.2381963205747053,3.4786065739686043,80.23360086223626,-164.45876140589337,214.69694200563552
100.0,-8.75312282253902,6.102123077539436,-9.560183868320877,-14.557971173307543,8.723978958837003,49.76030128044627,-2.617213817610457,-1.456825587710341,137.25012941894843,2.2381963205747053,1.8097722281174495,82.19674168620531,-166.88343458511548,196.31408239690504
100.0,-8.823548730837514,5.95662576348587,-7.042590829849491,-14.549731405356644,8.723978958837003,49.46196634090856,-1.2005476448563912,-29.833493953770848,141.6666172754066,2.2381963205747053,0.12216452417833157,83.9840564507486,-168.7607703939118,178.73147645432837
100.0,-8.868451508200023,5.811650014506604,-4.490277736250864,-14.497574897926611,8.723978958837003,48.874648360423784,0.25346063416746545,-58.73179804847746,145.40082790238566,2.2381963205747053,-1.579396881957773,85.60251727994572,-170.15614061361046,161.8460829197121
100.0,-8.887231967312982,5.667662320340053,-1.8780459112957897,-14.398769416655101,8.723978958837003,47.99037611727954,1.7379013963059016,-88.42722431442449,148.4440762138436,2.2381963205747053,-3.2906129754768636,87.05821409229613,-171.12160935190906,145.56968123504123
100.0,-8.879006728158501,5.5251795819192155,0.8225239154479995,-14.248273842083783,8.723978958837003,46.79802750923076,3.2454831488825224,-119.23486080487824,150.7581752576621,2.2381963205747053,-5.0076007260587705,88.35647293327582,-171.69877505819065,129.8258840979693
100.0,-8.842557656905896,5.3847989711502295,3.644907125260576,-14.03806107689863,8.723978958837003,45.2827285216519,4.7681659079916265,-151.52989875788614,152.26827591091046,2.2381963205747053,-6.726809414097345,89.50195088310295,-171.92086880385747,114.54779498271253
100.0,-8.776255615041528,5.247239378177155,6.630204186436769,-13.755959297307466,8.723978958837003,43.42496174784158,6.2966665614538355,-185.77667738103202,152.85006534622087,2.2381963205747053,-8.444952646007419,90.49871222373338,-171.81432319100742,99.67613406304342
100.0,-8.677946015790234,5.113402539388007,9.830959925129388,-13.383683878914754,8.723978958837003,41.19924016797324,7.819742577959835,-222.57215798683427,152.3076016506,2.2381963205747053,-10.15895225250123,91.35028924932394,-171.39996064938111,85.15770255905547
100.0,-8.54477440289066,4.98446841107847,13.3171612899574,-12.893412830953746,8.723978958837003,38.57209577407159,9.323086496790406,-262.7144393901642,150.33439188305715,2.2381963205747053,-11.86589134412851,92.05973010924285,-170.6939091627281,70.94408599189182
100.0,-8.372912484367394,4.862052828015723,17.18619185232658,-12.241558306274637,8.723978958837003,35.4989290139414,10.78750938632225,-307.316676013019,146.4422889531845,2.2381963205747053,-13.562974653411509,92.62963527198015,-169.70833092829974,56.99051627372927
