100.0,0.0,0.0,0.0,0.0,0.9375944354566635,43.666902219903484,49.947661659665165,-113.476993009143,99.20762240488311,6.661229601506557,-30.57395749046401,-69.81465078997067,120.18665079596536,-52.63338727299006
100.0,-0.0031981077213902548,-0.008900574743589669,-0.3198107721390255,-0.8900574743589669,0.9375944354566635,42.38083012829461,50.76584380233851,-128.60720916088727,81.818214267334,6.661229601506557,-29.3027838328535,-70.1828907880836,127.11736576105123,-36.82399981129233
100.0,-0.009460874108405608,-0.026785349537536106,-0.6262766387015354,-1.7884774793946439,0.9375944354566635,40.946548371192,51.40563471954361,-143.42817571026123,63.979091720510205,6.661229601506557,-27.964741676353594,-70.39114851728809,133.80421564999054,-20.825772920449694
100.0,-0.018662780822717003,-0.053772149648790124,-0.9201906714311395,-2.698680011125402,0.9375944354566635,39.3664840554767,51.861495369817995,-158.00643157153067,45.58606502743831,6.661229601506557,-26.56205695770959,-70.43687551398756,140.26847186440045,-4.572699669946555
100.0,-0.030684298935776108,-0.09001502893231474,-1.2021518113059106,-3.624287928352461,0.9375944354566635,37.64244996922706,52.12670411821545,-172.40340862496407,26.520874839745254,6.661229601506557,-25.096779231386126,-70.31681298749054,146.52777263234628,12.006252649702173
100.0,-0.04540993100013037,-0.13570707880661304,-1.4725632064354257,-4.5692049874298295,0.9375944354566635,35.77568373453922,52.193171829973224,-186.67662346878396,6.6467711757773245,6.661229601506557,-23.570816573383606,-70.02692362468814,152.5962658002521,28.988936280240406
100.0,-0.06272614618073911,-0.1910841363270256,-1.7316215180608745,-5.537705752041257,0.9375944354566635,33.76687801315754,52.05119910839386,-200.88057213816802,-14.197272157936172,6.661229601506557,-21.985970831111477,-69.56230175382608,158.48457422721285,46.46218708620656
100.0,-0.08251910151157112,-0.25642955436495307,-1.9792955330832003,-6.534541803792748,0.9375944354566635,31.616204976091353,51.68915593359096,-215.06730370661822,-36.204317480289916,6.661229601506557,-20.34397527663423,-68.91705664129852,164.1995554477249,64.52451125275662
100.0,-0.10467201560546353,-0.33208025061786706,-2.2152914093892417,-7.565069625291397,0.9375944354566635,29.32333922381827,51.09305468221648,-229.28657522730848,-59.610125137447696,6.661229601506557,-18.646537259287516,-68.08416158327393,169.74380173467137,83.28950580245873
100.0,-0.12906202088479765,-0.41843431684616056,-2.4390005279334126,-8.635406622829349,0.9375944354566635,26.88748555144725,50.24597298411254,-243.58536723710205,-84.70816981039404,6.661229601506557,-16.895389368813987,-67.05525843876863,175.1147890473531,102.89031445052915
100.0,-0.15555626211992016,-0.5159605441375142,-2.6494241235122518,-9.75262272913537,0.9375944354566635,24.30742243140272,49.12725941504104,-258.00631200445264,-111.87135690715051,6.661229601506557,-15.092354125413959,-65.82040283216722,180.30352434000275,123.48556066014206
100.0,-0.1840069280503262,-0.6252102949196543,-2.8450665930406056,-10.924975078214011,0.9375944354566635,21.581581020172507,47.711415812600855,-272.58414112302125,-141.58436024401806,6.661229601506557,-13.239429686769967,-64.36772860921845,185.29244386439916,145.267422294877
100.0,-0.21424479822918002,-0.7468321968229367,-3.023787017885381,-12.162190190328232,0.9375944354566635,18.70819765290449,45.96648183474251,-287.33833672680146,-174.49339778583462,6.661229601506557,-11.338908188605537,-62.682999869410054,190.05214981644295,168.47287398083952
100.0,-0.24607077647431147,-0.8815900576556472,-3.1825978245131434,-13.47578608327106,0.9375944354566635,15.685616110466823,43.85162338950909,-302.25815424376685,-211.4858445233417,6.661229601506557,-9.393545391864706,-60.749002583938946,194.5362796740831,193.399728547111
100.0,-0.27924485128661647,-1.0303839552021352,-3.3174074812305,-14.879389754648804,0.9375944354566635,12.51290117954074,41.313388739500276,-317.2714930926082,-253.8234650008815,6.661229601506557,-7.406812772609722,-58.54470102241155,198.67326192549837,220.43015615273939
100.0,-0.3134723006631802,-1.1942729378515218,-3.4227449376563728,-16.38889826493865,0.9375944354566635,9.191127894743925,38.27961012113595,-332.17732847968165,-303.37786183643243,6.661229601506557,-5.383286084656375,-56.04403859425113,202.3526687953347,250.0662428160425
100.0,-0.34838895809281073,-1.3744931167377445,-3.4916657429630495,-18.02201788862228,0.9375944354566635,5.726237232275615,34.64885659360517,-346.48906624683093,-363.0753527530783,6.661229601506557,-3.32926850022009,-53.21418169182586,205.4017584436285,282.98569024252663
100.0,-0.3835556956312156,-1.5724506191941405,-3.5166737538404873,-19.795750245639592,0.9375944354566635,2.1358760651640862,30.270743903388208,-359.0361167111529,-437.81126902169603,6.661229601506557,-1.2538361821117219,-50.01285401039009,207.54323181083683,320.1327681435763
100.0,-0.4185074363542689,-1.7896222080048443,-3.495174072305329,-21.717158881070382,0.9375944354566635,-1.5322217000574825,24.905308529994507,-366.8097765221569,-536.5435373393701,6.661229601506557,0.8293102853892038,-46.38411021218611,208.31464675009255,362.8743798203982
100.0,-0.4530704941982895,-2.027127685902353,-3.4563057844020553,-23.750547789750847,0.9375944354566635,-5.141493841713547,18.127169692320646,-360.92721416560653,-677.8138837673861,6.661229601506557,2.8983418115286588,-42.251265517207685,206.90315261394548,413.2844694978421
100.0,-0.4892001722111157,-2.2840502791647657,-3.612967801282625,-25.692259326241288,0.9375944354566635,-8.219230381116965,9.056489521906839,-307.7736539403418,-907.0680170413806,6.661229601506557,4.916076080783088,-37.50424209279521,201.77342692544292,474.70234244124765
100.0,-0.5454068914529909,-2.5516993495101055,-5.620671924187523,-26.764907034533973,0.9375944354566635,-8.299082300574968,-4.428369663760725,-7.9851919458002385,-1348.4859185667563,6.661229601506557,6.8132476517159635,-31.974877013483834,189.71715709328754,552.9365079311377
100.0,-0.6567420799691314,-2.9071949004988222,-11.133518851614046,-35.54955509887168,0.9375944354566635,-0.5928037069727692,-16.095717166705214,770.6278593602199,-1166.734750294449,6.661229601506557,8.442092528887404,-25.382561150635784,162.88448771714397,659.2315862848051
100.0,-0.7253001079588814,-3.421612710954729,-6.855802798975011,-51.44178104559066,0.9375944354566635,7.362297218602106,-22.298472829737342,795.5100925574875,-620.2755663032127,6.661229601506557,9.393733532843946,-17.17362858339734,95.16410039565426,820.8932567238444
100.0,-0.6496755129023287,-4.1405146732650575,7.562459505655271,-71.89019623103282,0.9375944354566635,14.518936959231317,-25.980361643962326,715.663974062921,-368.18888142249824,6.661229601506557,8.293256480757883,-6.249752148830979,-110.04770520860629,1092.387643456636
100.0,0.029222658192368023,-5.010808966739068,67.88981710946967,-87.02942934740103,0.9375944354566635,20.821968385896756,-28.352238160737578,630.303142666544,-237.18765167752517,6.661229601506557,-1.7435615713620667,6.762473390644381,-1003.681805211995,1301.222553947536
100.0,0.644533093336741,-5.423588032745182,61.5310435144373,-41.27790660061135,0.9375944354566635,26.423618792552162,-29.927800152470546,560.1650406655403,-157.5561991732968,6.661229601506557,-10.727062900253946,12.794284562804396,-898.350132889188,603.1811172160014
100.0,1.1887376199062984,-5.718951937680168,54.42045265695573,-29.536390493498565,0.9375944354566635,31.438674756116825,-30.943057577807664,501.5055963564661,-101.5257425337119,6.661229601506557,-18.560539533786176,16.984565674515494,-783.3476633532232,419.0281111711097
100.0,1.6893020464378372,-5.962682168343119,50.05644265315387,-24.373023066295115,0.9375944354566635,35.948626782307514,-31.53588064430062,450.99520261906883,-59.28230664929526,6.661229601506557,-25.66778498565837,20.340250193107494,-710.7245451872192,335.5684518592001
100.0,2.160637417112186,-6.177425750499145,47.13353706743489,-21.47435821560264,0.9375944354566635,40.01226937050452,-31.794801999591908,406.36425881970035,-25.892135529128957,6.661229601506557,-32.27341691703009,23.213782101860282,-660.5631931371721,287.3531908752787
100.0,2.610969382884476,-6.373584821016729,45.033196577229006,-19.615907051758455,0.9375944354566635,43.67304687727895,-31.780529775504476,366.07775067744296,1.4272224087432122,6.661229601506557,-38.50703576717924,25.769865721006912,-623.3618850149146,255.608361914663
100.0,3.045454480944373,-6.55679845075222,43.448509805989694,-18.321362973549075,0.9375944354566635,46.96368504974281,-31.536793709862636,329.06381724638607,24.37360656418393,6.661229601506557,-44.45065900585815,28.099311288396873,-594.362323867891,232.94455673899606
100.0,3.4675660790615592,-6.730470004089941,42.21115981171863,-17.367155333772082,0.9375944354566635,49.90914035525138,-31.096331638129275,294.54553055085756,44.04620717333592,6.661229601506557,-50.159942396952424,30.257818918421563,-570.9283391094273,215.85076300246897
100.0,3.879775952769648,-6.896813805921938,41.220987370808885,-16.63438018319971,0.9375944354566635,52.52852591842996,-30.484430436712355,261.9385563178585,61.19012014169195,6.661229601506557,-55.674683084309834,32.282189823241474,-551.4740687357406,202.43709048199125
100.0,4.283921082096494,-7.057352716312395,40.41451293268467,-16.053891039045723,0.9375944354566635,54.83639881477337,-29.721139936454577,230.78728963434054,76.32905002577785,6.661229601506557,-61.0245072251974,34.198107641836664,-534.9824140887564,191.59178185951902
100.0,4.681416016732891,-7.213179508672161,39.74949346363966,-15.58267923597655,0.9375944354566635,56.843634002221755,-28.82272261700772,200.72351874483897,89.84173194468559,6.661229601506557,-66.23218107722849,36.02426636299936,-520.7673852031095,182.61587211627005
100.0,5.073383367764874,-7.365104962427581,39.19673510319832,-15.192545375542,0.9375944354566635,58.558019413717716,-27.80264181153464,171.43854114959623,102.00808054730784,6.661229601506557,-71.31565373364069,37.77473262224528,-508.3472656412204,175.04662592459158
100.0,5.460738078535001,-7.5137468817800945,38.73547107701263,-14.864191935251345,0.9375944354566635,59.98465391288109,-26.6722607000206,142.66344991633784,113.03811115140401,6.661229601506557,-76.28937823181181,39.46038045917376,-497.3724498171126,168.56478369284844
100.0,5.844244250072694,-7.659586185940552,38.35061715376932,-14.583930416045694,0.9375944354566635,61.12619781978222,-25.441355206505136,114.15439069011298,123.09054935154663,6.661229601506557,-81.16519989294487,41.08980555003248,-487.582166113306,162.9425090858719
100.0,6.224555010865755,-7.8030036061257535,38.03107607930616,-14.341742018520206,0.9375944354566635,61.98300520388255,-24.118505663803102,85.68073841003252,132.28495427020346,6.661229601506557,-85.95297347753666,42.669931240320786,-478.7773584591783,158.01256902883054
100.0,6.6022416084676365,-7.944304406563236,37.76865976018814,-14.130080043748242,0.9375944354566635,62.55315284717411,-22.71141042504437,57.01476432915623,140.709523875873,6.661229601506557,-90.661003992343,44.206423804595815,-470.80305148063445,153.64925642750302
100.0,6.977815551232482,-8.083735380604748,37.55739427648458,-13.943097404151315,0.9375944354566635,62.83236949022495,-21.227152427071857,27.92166430508401,148.42579979725116,6.661229601506557,-95.29636912859496,45.70398511611811,-463.5365136251966,149.75613115222956
100.0,7.351746310866297,-8.221496636870093,37.39307596338141,-13.776125626534403,0.9375944354566635,62.8138584121214,-19.672443569326894,-1.8511078103549536,155.47088577449642,6.661229601506557,-99.86516004442996,47.1665639806069,-456.87909158350004,146.25788644887933
100.0,7.72447635886356,-8.357749679856099,37.273004799726415,-13.625304298600632,0.9375944354566635,62.48799450141385,-18.05387016773498,-32.58639107075476,161.85734015919147,6.661229601506557,-104.37266445707431,48.59751199291489,-450.7504412644355,143.09480123079894
100.0,8.096434931099576,-8.492622653738932,37.1958572236016,-13.487297388283347,0.9375944354566635,61.8418612600283,-16.3781655689153,-64.61332413855516,167.57045988196833,6.661229601506557,-108.82350811172128,49.9997006297938,-445.0843654646976,140.2188636878911
100.0,8.468051797727641,-8.626213163343241,37.16168666280652,-13.359050960430835,0.9375944354566635,60.858569873969515,-14.652544604849455,-98.32913860587907,172.56209640658446,6.661229601506557,-113.22176565508478,51.37561067478842,-439.82575433635003,137.5910044994622
100.0,8.839772447066958,-8.758588681327483,37.17206493393164,-13.237551798424166,0.9375944354566635,59.51626501899307,-12.885152516534658,-134.23048549764468,176.7392088314796,6.661229601506557,-117.57104864283286,52.72740151878313,-434.9282987748079,135.1790843994717
100.0,9.212076545724743,-8.889784065839697,37.23040986577865,-13.119538451221475,0.9375944354566635,57.78665799410897,-11.085716299460746,-172.96070248840928,179.94362170739117,6.661229601506557,-121.87457620016765,54.05696557390049,-430.35275573347883,132.95640551173588
100.0,9.585502523657507,-9.019794948046073,37.342597793276376,-13.001088220637596,0.9375944354566635,55.63281182491238,-9.26655711744749,-215.38461691965935,181.91591820132544,6.661229601506557,-126.13523234327465,55.36597150672603,-426.06561431070037,130.90059328255316
100.0,9.960683149909174,-9.148564286309773,37.51806262516679,-12.876933826369962,0.9375944354566635,53.00568036507295,-7.444271047509835,-262.71314598394304,182.22860699376557,6.661229601506557,-130.35561291579643,56.65589895786147,-422.0380572521789,128.99274511354386
