100.0,0.0,0.0,0.0,0.0,0.6684039800477577,-2.470080958319887,-68.3305592930693,146.15641463382792,-5.283407313774791,2.5427647429723863,21.390876958613184,74.6615904000448,-123.77743239859967,35.46278364155926
100.0,0.0011094024002496427,0.002623712647307501,0.11094024002496426,0.26237126473075006,0.6684039800477577,-1.000590586168557,-68.16844345302611,146.949037215133,16.211584004319203,2.5427647429723863,20.107389337230558,74.85653195666042,-128.34876213826277,19.494155661561358
100.0,0.0032957006188580307,0.007897468020001923,0.2186298218608388,0.5273755372694422,0.6684039800477577,0.4722381995099083,-67.7900148186339,147.28287856784652,37.84286343922105,2.5427647429723863,18.7806727891341,74.89039348951495,-132.6716548096455,3.386153285453368
100.0,0.00652976155663233,0.01585546361512313,0.3234060937774299,0.7957995595121206,0.6684039800477577,1.9437187173353507,-67.19282883525939,147.14805178254423,59.71859833745213,2.5427647429723863,17.41310500436522,74.76118751637502,-136.7567784768879,-12.920597313992634
100.0,0.010785601482649156,0.026540237194631895,0.42558399260168267,1.0684773579508764,0.6684039800477577,3.4089611722340996,-66.37329322340511,146.52424548987486,81.95356118542824,2.5427647429723863,16.006993208394704,74.46629685838914,-140.61117959705186,-29.489065798587458
100.0,0.016040235118383317,0.04000326129974272,0.5254633635734163,1.3463024105110826,0.6684039800477577,4.86275472035498,-65.32656710917169,145.37935481208805,104.67261142334162,2.5427647429723863,14.56461109824388,74.00242474438497,-144.23821101508236,-46.38721140041732
100.0,0.02227360885805067,0.05630567407617566,0.6233373739667352,1.630241277643294,0.6684039800477577,6.299427715130169,-64.04641825890323,143.66729947751892,128.01488502684538,2.5427647429723863,13.088238205172491,73.36552854148401,-147.6372893071388,-63.68962029009593
100.0,0.029468639488437986,0.07551916231323252,0.7195030630387317,1.921348823705686,0.6684039800477577,7.712675190975091,-62.525027733844475,141.32474758449214,152.1390525058757,2.5427647429723863,11.580203720439183,72.55073367812072,-150.8034484733309,-81.4794863363285
100.0,0.037611396360965596,0.09772701229215633,0.8142756872527613,2.22078499789238,0.6684039800477577,9.09533807466171,-60.752726138940254,138.26628836866186,177.2301594904222,2.5427647429723863,10.042937368584578,71.55222298607114,-153.7266351854604,-99.85106920495714
100.0,0.046691492564117365,0.12302534010090045,0.9080096203151768,2.529832780874412,0.6684039800477577,10.439111204438237,-58.71763800186518,134.37731297765282,203.50881370750722,2.5427647429723863,8.479030775255394,70.36309483520569,-156.3906593329184,-118.91281508654536
100.0,0.05670279837839671,0.15152450136330525,1.0011305814279345,2.849916126240479,0.6684039800477577,11.734145001987002,-56.40519906164084,129.5033797548765,231.243894022434,2.5427647429723863,6.891314115488023,68.97518080473517,-158.77166597673707,-138.79140304705055
100.0,0.0676446760443338,0.18335065242153228,1.0941877665937096,3.1826151058227037,0.6684039800477577,12.96848487201153,-53.79749252447718,123.43398700245282,260.77065371636655,2.5427647429723863,5.282954915906887,67.37880981102394,-160.83591995811355,-159.63709937112307
100.0,0.07952409512775307,0.21864737339952253,1.1879419083419276,3.529672097799025,0.6684039800477577,14.127255861035941,-50.87231946473658,115.8770989024411,292.5173059740598,2.5427647429723863,3.6575891878848097,65.56249991783555,-162.53657280220776,-181.63098931883883
100.0,0.0923593006990585,0.2575771309527058,1.283520557130542,3.892975755318324,0.6684039800477577,15.191432960456407,-47.60186562729685,106.41770994204664,327.0453837439723,2.5427647429723863,2.019500412408754,63.51255035931465,-163.80887754760553,-204.99495585209004
100.0,0.10618634930785822,0.3003220726267654,1.3827048608799732,4.2744941674059636,0.6684039800477577,16.13590747599509,-43.95073220530752,94.44745155386828,365.1133421989333,2.5427647429723863,0.3738707819189424,61.21249266032138,-164.56296304898117,-230.00576989932696
100.0,0.12107122943921057,0.34708301671346137,1.4884880131352343,4.676094408669596,0.6684039800477577,16.926292108356524,-39.87292024395141,79.03846323614347,407.78119613561046,2.5427647429723863,-1.2728556315360264,58.64233766779142,-164.67264134549688,-257.0154992529955
100.0,0.13713357025098077,0.3980740761773774,1.6062340811770204,5.099105946391602,0.6684039800477577,17.51331192245123,-35.30700456551009,58.70198140947072,456.591567844132,2.5427647429723863,-2.912430858102928,55.77751837060306,-163.95752265669017,-286.4819297188361
100.0,0.1545963810070345,0.45350697681634394,1.7462810756053715,5.543290063896654,0.6684039800477577,17.822172185625174,-30.167983170970793,30.88602631739436,513.9021394539296,2.5427647429723863,-4.533964322598771,52.58736411609339,-162.15334644958432,-319.0154254509674
100.0,0.1739005988006884,0.5135507231977956,1.9304217793653913,6.00437463814516,0.6684039800477577,17.730271487446583,-24.332585321057323,-9.19006981785909,583.539784991347,2.5427647429723863,-6.12256925208673,49.032824846732105,-158.8604929487959,-355.4539269361288
100.0,0.19600521682928895,0.5782307395412387,2.210461802860057,6.468001634344313,0.6684039800477577,17.01355867154752,-17.610746938393177,-71.67128158990602,672.1838382664143,2.5427647429723863,-7.657065014318055,45.06293949422087,-153.44957622313254,-396.9885352511234
100.0,0.22333787923639797,0.6471847722235001,2.7332662407109027,6.895403268226139,0.6684039800477577,15.18852187566965,-9.687208828000209,-182.5036795877871,792.3538110392967,2.5427647429723863,-9.105825860587581,40.60908388133882,-144.87608462695263,-445.38556128820505
100.0,0.26386651534491234,0.7193599391052906,4.052863610851436,7.217516688179053,0.6684039800477577,10.87211639243602,-0.0383342681939407,-431.6405483233631,964.8874559806268,2.5427647429723863,-10.418654597050374,35.57501919731099,-131.28287364627926,-503.4064684027825
100.0,0.35773245173472595,0.8056176715036587,9.38659363898136,8.625773239836814,0.6684039800477577,-2.2704266541220886,10.253082858205074,-1314.2543046558108,1029.1417126399015,2.5427647429723863,-11.509010747636465,29.818223648936584,-109.03561505860904,-575.679554837441
100.0,0.4242343966631098,0.9789756603814396,6.650194492838382,17.33579888777809,0.6684039800477577,-12.80800265797945,11.14615011430647,-1053.7576003857362,89.30672561013967,2.5427647429723863,-12.207970560964402,23.106510349927238,-69.89598133279362,-671.1713299009348
100.0,0.45228422404954904,1.2009733889023488,2.8049827386439223,22.199772852090923,0.6684039800477577,-20.489082868722793,10.028299368438853,-768.1080210743343,-111.7850745867618,2.5427647429723863,-12.145586407085853,15.010528853092998,6.2384153878548005,-809.5981496834239
100.0,0.41936270190100533,1.481761015800777,-3.292152214854369,28.07876268984282,0.6684039800477577,-26.173794220479824,8.28504307383443,-568.4711351757031,-174.32562946044223,2.5427647429723863,-10.210141021069495,4.766898308140913,193.54453860163585,-1024.3630544952084
100.0,0.18157818057062758,1.8254058059931966,-23.778452133037774,34.36447901924195,0.6684039800477577,-30.47981229533479,6.192371723357668,-430.6018074854965,-209.26713504767625,2.5427647429723863,-0.5804030746778626,-7.856883972079734,962.9737946391632,-1262.3782280220646
100.0,-0.08248052354080088,1.9238353097677994,-26.405870411142843,9.84295037746029,0.6684039800477577,-33.73261405382597,3.9427902584894317,-325.2801758491179,-224.9581464868236,2.5427647429723863,9.805773038363764,-10.79577186527053,1038.6176113041627,-293.8887893190795
100.0,-0.2922855259527265,1.9452763455595379,-20.980500241192566,2.1441035791738443,0.6684039800477577,-36.09562999701036,1.6366480542540924,-236.30159431843902,-230.6142204235339,2.5427647429723863,17.824405489755385,-10.692045516236918,801.8632451391622,10.372634903361018
100.0,-0.46456100635902575,1.936856869632868,-17.227548040629927,-0.8419475926669704,0.6684039800477577,-37.67052602790247,-0.6646228982437385,-157.48960308921022,-230.12709524978308,2.5427647429723863,24.159935051458966,-9.415267190595797,633.5529561703581,127.67783256411221
100.0,-0.6102223430422383,1.9136231018478465,-14.566133668321257,-2.3233767785021593,0.6684039800477577,-38.52183602393044,-2.9166651254958924,-85.13099960279689,-225.2042227252154,2.5427647429723863,29.258597472145645,-7.568823694808012,509.86624206866793,184.64434957877853
100.0,-0.7357448511177389,1.8819763536350222,-12.55225080755006,-3.164674821282426,0.6684039800477577,-38.68850055184643,-5.082554659806079,-16.666452791599056,-216.58895343101867,2.5427647429723863,33.38528534292181,-5.414167163546919,412.66878707761674,215.46565312610926
100.0,-0.8452590351242257,1.8451520975610705,-10.951418400648686,-3.682425607395173,0.6684039800477577,-38.189671322737674,-7.127243325292061,49.88292291087595,-204.46886654859816,2.5427647429723863,36.7074744536584,-3.087752846115301,332.2189110736585,232.6414317431618
100.0,-0.9416047528039799,1.8049607415661946,-9.634571767975425,-4.019135599487594,0.6684039800477577,-37.02717101359431,-9.013318826852421,116.25003091433643,-188.60755015603596,2.5427647429723863,39.33732777954644,-0.6706135323291642,262.9853325888044,241.71393137861367
100.0,-1.0268772660003262,1.762459069023869,-8.527251319634637,-4.250167254232547,0.6684039800477577,-35.185444989284235,-10.696581917119751,184.17260243100742,-168.326309026733,2.5427647429723863,41.35315748251612,1.7840719335724877,201.5829702969674,245.46854659016518
100.0,-1.1027421685508978,1.7182321732939907,-7.586490255057153,-4.422689572987844,0.6684039800477577,-32.62892992086327,-12.119973514020158,255.65150684209664,-142.33915969004062,2.5427647429723863,42.81111846779328,4.2382945876016045,145.79609852771614,245.42226540291173
100.0,-1.1706494000695804,1.6724919044807744,-6.790723151868266,-4.5740268813216245,0.6684039800477577,-29.295784478100106,-13.2033947427959,333.31454427631655,-108.34212287757435,2.5427647429723863,43.75197698023681,6.662667748464351,94.08585124435308,242.43731608627456
100.0,-1.232022752197611,1.6250387130748196,-6.13733521280306,-4.745319140595484,0.6684039800477577,-25.08514285917968,-13.823792758027516,421.0641618920426,-62.039801523161394,2.5427647429723863,44.20521276662508,9.032692861637873,45.32357863882667,237.00251131735223
100.0,-1.2885013475527032,1.575017054435164,-5.647859535509216,-5.002165863965552,0.6684039800477577,-19.830714604574286,-13.769608226092114,525.4428254605394,5.418453193540181,2.5427647429723863,44.19157609767223,11.326404608990424,-1.36366689528478,229.37117473525512
100.0,-1.342377760466506,1.5201028102007492,-5.387641291380265,-5.49142442344148,0.6684039800477577,-13.241319626261237,-12.612851399561984,658.9394978313048,115.6756826530129,2.5427647429723863,43.72468659883343,13.522700678700687,-46.68894988388009,219.6296069710262
100.0,-1.3975699389522829,1.4532168850400957,-5.519217848577704,-6.688592516065346,0.6684039800477577,-4.7591111888074895,-9.212196399807564,848.2208437453749,340.0654999754421,2.5427647429723863,42.81198806653483,15.599967892903324,-91.26985322985976,207.7267214202637
100.0,-1.4575895237063123,1.3389493208418202,-6.001958475402956,-11.426756419827552,0.6684039800477577,6.134780924794626,1.8194239301536381,1089.3892113602114,1103.1620329961202,2.5427647429723863,41.455190903385905,17.53471162137805,-135.6797163148926,193.47437284747267
100.0,-1.4555534689551899,1.232161008275409,0.20360547511225313,-10.6788312566411,0.6684039800477577,9.451847468262557,12.37748611173331,331.70665434679313,1055.8062181579671,2.5427647429723863,39.64959737145616,19.299798674685924,-180.55935319297453,176.50870533078745
100.0,-1.422747158266747,1.150091121405007,3.280631068844289,-8.206988687040212,0.6684039800477577,9.91863880503633,20.002633542575705,46.67913367737748,762.5147430842395,2.5427647429723863,37.38313135630316,20.863738264988854,-226.6466015152997,156.393959030293
100.0,-1.3708564278067197,1.085932696103876,5.189073046002736,-6.415842530113082,0.6684039800477577,9.3541217531435,25.858561120546277,-56.45170518928292,585.5927577970573,2.5427647429723863,34.63722210957068,22.18833500323671,-274.5909246732478,132.45967382478568
100.0,-1.3027271792956312,1.0375725618088931,6.812924851108848,-4.836013429498283,0.6684039800477577,8.282945320955141,30.44955635663895,-107.11764321883587,459.0995236092672,2.5427647429723863,31.385879293987585,23.224134560840138,-325.1342815583093,103.57995576034287
100.0,-1.2189536847534181,1.0050025034725625,8.377349454221298,-3.257005833633066,0.6684039800477577,6.929377115004954,34.034046633444895,-135.35682059501872,358.44902768059416,2.5427647429723863,27.593521891270807,23.903528486485346,-379.23574027167786,67.93939256452066
100.0,-1.119100216270865,0.9897198564131723,9.985346848255324,-1.5282647059390209,0.6684039800477577,5.411954229205748,36.75848488092799,-151.74228857992054,272.44382474830934,2.5427647429723863,23.211854652473072,24.129133310549072,-438.16672387977343,22.560482406372643
100.0,-1.0019956057980588,0.9949534228554008,11.71046104728062,0.5233566442228448,0.6684039800477577,3.8022029277331866,38.707939660379516,-160.97513014725618,194.9454779451529,2.5427647429723863,18.17601697847681,23.751607498993863,-503.5837673996263,-37.75258115552087
100.0,-0.8658050566331905,1.0267283957301598,13.619054916486832,3.177497287475906,0.6684039800477577,2.1459685509612427,39.92846014183966,-165.62343767719437,122.05204814601404,2.5427647429723863,12.401800183148033,22.521891934819518,-577.4216795328776,-122.97155641743447
