0.0,16156670.21775266,0.0
1.0,6432.832020861038,0.0
2.0,5291.209711602393,0.0
3.0,4970.432482130984,0.0
4.0,4628.159080992354,0.0
5.0,4443.305082280585,0.0
6.0,4330.453306806849,0.0
7.0,4206.972744556184,0.0
8.0,4080.654592960439,0.0
9.0,3912.619197764295,0.0
10.0,3770.96258934508,0.0
11.0,3703.1398458277927,0.0
12.0,3620.0010960355717,0.0
13.0,3561.020954537899,0.0
14.0,3474.385311045545,0.0
15.0,3417.8450953706783,0.0
16.0,3382.820572224069,0.0
17.0,3348.6846845910904,0.0
18.0,3318.3839552859044,0.0
19.0,3293.910426363032,0.0
20.0,3265.185193650266,0.0
21.0,3246.5042646692154,0.0
22.0,3231.751355759641,0.0
23.0,3218.2103349401596,0.0
24.0,3199.383233252992,0.0
25.0,3184.6771214261967,0.0
26.0,3165.166046791888,0.0
27.0,3148.744343209774,0.0
28.0,3128.3224318484044,0.0
29.0,3112.708755817819,0.0
30.0,3095.68539623504,0.0
31.0,3085.5474775598404,0.0
32.0,3070.6626963513963,0.0
33.0,3051.7257417719416,0.0
34.0,3038.234660696476,0.0
35.0,3023.8081781914893,0.0
36.0,3005.739065616689,0.0
37.0,2993.56265063996,0.0
38.0,2976.910249750665,0.0
39.0,2958.951909491356,0.0
40.0,2949.467217627992,0.0
41.0,2937.505464594415,0.0
42.0,2922.979435048205,0.0
43.0,2910.467446185173,0.0
44.0,2901.7423069730717,0.0
45.0,2887.9581740359044,0.0
46.0,2877.459212932181,0.0
47.0,2867.8434435255986,0.0
48.0,2857.3716028091753,0.0
49.0,2845.6178316156916,0.0
50.0,2832.7376267453456,0.0
51.0,2822.3348206865026,0.0
52.0,2809.4848425033247,0.0
53.0,2796.6439702460107,0.0
54.0,2785.0599806765294,0.0
55.0,2772.280501994681,0.0
56.0,2760.5404078706783,0.0
57.0,2750.142074260306,0.0
58.0,2737.502431017287,0.0
59.0,2726.2288220994014,0.0
60.0,2712.7822888962764,0.0
61.0,2701.746784616024,0.0
62.0,2689.6754228307846,0.0
63.0,2676.448595412234,0.0
64.0,2663.8187697390294,0.0
65.0,2651.5977341672206,0.0
66.0,2637.3585231050533,0.0
67.0,2625.932856133644,0.0
68.0,2610.2989995428857,0.0
69.0,2596.3103650681514,0.0
70.0,2582.657621343085,0.0
71.0,2565.644110497008,0.0
72.0,2544.4087537400264,0.0
73.0,2519.332026055519,0.0
74.0,2492.31009495512,0.0
75.0,2465.603162400266,0.0
76.0,2436.0171781499334,0.0
77.0,2403.5238374750666,0.0
78.0,2369.5928201878323,0.0
79.0,2331.8797269780584,0.0
80.0,2290.0754862034573,0.0
81.0,2242.8110819065823,0.0
82.0,2184.827231549202,0.0
83.0,2114.400380236037,0.0
84.0,2032.4776091879987,0.0
85.0,1935.226494971742,0.0
86.0,1817.9503745221077,0.0
87.0,1674.6781109749002,0.0
88.0,1489.5412078208112,0.0
89.0,1262.551092918883,0.0
90.0,1004.6513282288896,0.0
91.0,754.0115447348737,0.0
92.0,578.8423825527759,0.0
93.0,505.21923828125,0.0
94.0,479.0745018492354,0.0
95.0,464.03387970620014,0.0
96.0,456.0639680903009,0.0
97.0,450.89639866605717,0.0
98.0,446.86524606258314,0.0
99.0,443.4517491117437,0.0
100.0,442.5444848892537,0.0
101.0,441.18262368060175,0.0
102.0,438.83036447078626,0.0
103.0,437.50676775993185,0.0
104.0,436.386699920005,0.0
105.0,434.86293581698806,0.0
106.0,433.5035978276679,0.0
107.0,432.2224705472906,0.0
108.0,430.8250011687583,0.0
109.0,429.8652395694814,0.0
110.0,428.55775743849733,0.0
111.0,427.6539644281915,0.0
112.0,426.6562448055186,0.0
113.0,425.76083698678525,0.0
114.0,425.16748111806015,0.0
115.0,423.74849165246843,0.0
116.0,423.08327402967086,0.0
117.0,422.03829371675533,0.0
118.0,422.4374616906998,0.0
119.0,420.24469708381815,0.0
120.0,418.9664839074967,0.0
121.0,418.25315110226893,0.0
122.0,417.6110671023105,0.0
123.0,417.04044163480717,0.0
124.0,415.4884630568484,0.0
125.0,414.5524012788813,0.0
126.0,414.13966661818483,0.0
127.0,413.3914833880485,0.0
128.0,412.326468609749,0.0
129.0,410.7463839916473,0.0
130.0,409.68896419443985,0.0
131.0,409.7817876288231,0.0
132.0,408.0330615753823,0.0
133.0,407.2764288719664,0.0
134.0,406.05213571102064,0.0
135.0,405.4153202138049,0.0
136.0,404.6887538179438,0.0
137.0,403.42380734707444,0.0
138.0,402.58979180518617,0.0
139.0,401.81252792033746,0.0
140.0,400.651487309882,0.0
141.0,400.53184736535906,0.0
142.0,399.4286122423537,0.0
143.0,398.31923919028424,0.0
144.0,397.44651761968083,0.0
145.0,397.8104955794963,0.0
146.0,395.7019361130735,0.0
147.0,394.5935220921293,0.0
148.0,393.7394558521027,0.0
149.0,393.0772224588597,0.0
150.0,392.23524247839094,0.0
151.0,392.0621915776679,0.0
152.0,391.12787384682514,0.0
153.0,390.4368844539561,0.0
154.0,389.85429025203626,0.0
155.0,388.7083357141373,0.0
156.0,387.8366874532497,0.0
157.0,386.7100589833361,0.0
158.0,385.68297690533575,0.0
159.0,385.15604027281415,0.0
160.0,385.34233904899435,0.0
161.0,383.50968835708943,0.0
162.0,382.5846317372424,0.0
163.0,381.9398102455951,0.0
164.0,381.31447844809674,0.0
165.0,379.886173978765,0.0
166.0,379.0473230240193,0.0
167.0,379.77735154172206,0.0
168.0,378.5311019572806,0.0
169.0,376.8696412431433,0.0
170.0,375.89697005900933,0.0
171.0,376.2477020912982,0.0
172.0,375.2245106798537,0.0
173.0,374.247889092628,0.0
174.0,373.28059614465593,0.0
175.0,372.5942363333195,0.0
176.0,372.50184663813167,0.0
177.0,370.5480528486536,0.0
178.0,369.79803466796875,0.0
179.0,369.5485184040475,0.0
180.0,368.2653574842088,0.0
181.0,367.72731699842086,0.0
182.0,366.1178965467088,0.0
183.0,366.254849048371,0.0
184.0,365.14564351832615,0.0
185.0,363.7967035821144,0.0
186.0,362.8401261999252,0.0
187.0,361.06973850980717,0.0
188.0,360.93319507355386,0.0
0.0,359.82937362346246,0.0
0.0,358.3367030366938,0.0
0.0,357.4208666213015,0.0
0.0,354.4917907714844,0.0
0.0,351.6791687011719,0.0
0.0,2946389.865556433,0.0
1.0,1868.347193941157,0.0
2.0,615.8162030159159,0.0
3.0,421.8339207426031,0.0
4.0,355.2700442050366,0.0
5.0,297.98059698875915,0.0
6.0,264.17210810235207,0.0
7.0,229.69200962147815,0.0
8.0,210.56592981866066,0.0
9.0,194.94203624319522,0.0
10.0,182.24114097432889,0.0
11.0,176.8416394172831,0.0
12.0,169.2684792051924,0.0
13.0,160.21856754384143,0.0
14.0,152.98852571528008,0.0
15.0,145.3803331091049,0.0
16.0,134.97662613239694,0.0
17.0,124.99310814066136,0.0
18.0,114.84329394076732,0.0
19.0,108.6915597306921,0.0
20.0,103.87708103910406,0.0
21.0,97.95007624524705,0.0
22.0,93.5579954106757,0.0
23.0,82.82934375519449,0.0
24.0,71.54708675628012,0.0
25.0,62.39863180606923,0.0
26.0,50.84834650729565,0.0
27.0,43.29933823930456,0.0
28.0,39.02828366705712,0.0
29.0,35.31538417491507,0.0
30.0,32.97445826834821,0.0
31.0,30.03260222901689,0.0
32.0,27.657186487887767,0.0
33.0,26.515726738787713,0.0
34.0,24.563310684041774,0.0
35.0,23.305154820705983,0.0
36.0,22.435103751243428,0.0
37.0,21.62000867153736,0.0
38.0,20.917657943482094,0.0
39.0,20.320608139038086,0.0
40.0,19.718492639825698,0.0
41.0,18.873388807824316,0.0
42.0,18.67302174263812,0.0
43.0,18.169470188465525,0.0
44.0,17.611336352977347,0.0
45.0,17.535875452325698,0.0
46.0,17.19202764998091,0.0
47.0,16.744691158862825,0.0
48.0,16.296730173395034,0.0
49.0,16.336564008225785,0.0
50.0,16.08251105978134,0.0
51.0,16.080900775625352,0.0
52.0,15.533762500641194,0.0
53.0,15.285172183462914,0.0
54.0,15.329985055517643,0.0
55.0,14.757084978387711,0.0
56.0,14.814942040341966,0.0
57.0,14.461139567354893,0.0
58.0,14.445346294565404,0.0
59.0,13.834778176977279,0.0
60.0,13.88332766167661,0.0
61.0,13.967835253857551,0.0
62.0,13.563773890759082,0.0
63.0,13.742921585732319,0.0
64.0,13.454510906909375,0.0
65.0,13.270659933698939,0.0
66.0,13.109945353041304,0.0
67.0,12.747404336929321,0.0
68.0,12.691903149827997,0.0
69.0,12.370859029445242,0.0
70.0,12.166025638580322,0.0
71.0,12.526594227932868,0.0
72.0,11.950861570682932,0.0
73.0,11.953402783008332,0.0
74.0,11.660654707157866,0.0
75.0,11.571814095720331,0.0
76.0,11.306897361227806,0.0
77.0,11.470769116219055,0.0
78.0,11.313638900188689,0.0
79.0,11.129783949953444,0.0
80.0,11.16570743601373,0.0
81.0,10.91431301451744,0.0
82.0,10.942855789306316,0.0
83.0,10.772265850229466,0.0
84.0,10.790385426358974,0.0
85.0,11.031837757597579,0.0
86.0,10.675352266494263,0.0
87.0,10.450729857099818,0.0
88.0,10.396176236741086,0.0
89.0,10.303391621467915,0.0
90.0,10.311716318130493,0.0
91.0,10.42949301384865,0.0
92.0,10.028101571062779,0.0
93.0,10.045519570086865,0.0
94.0,9.9283143332664,0.0
95.0,9.865582471198223,0.0
96.0,9.773358838355287,0.0
97.0,9.69413255123382,0.0
98.0,10.07140288454421,0.0
99.0,9.656154485459023,0.0
100.0,9.491407693700587,0.0
101.0,9.356857963064884,0.0
102.0,10.08192730203588,0.0
103.0,9.97710087451529,0.0
104.0,9.568581920989017,0.0
105.0,9.35731791435404,0.0
106.0,9.364864846493335,0.0
107.0,8.973664401693547,0.0
108.0,8.949515043420995,0.0
109.0,9.14522900733542,0.0
110.0,8.726752320502667,0.0
111.0,8.622649852265702,0.0
112.0,8.673293451045422,0.0
113.0,8.30720766047214,0.0
114.0,8.411867463842352,0.0
115.0,8.47388321795362,0.0
116.0,8.093680305683867,0.0
117.0,8.279098064975535,0.0
118.0,8.019444888259502,0.0
119.0,7.953644914829985,0.0
120.0,7.982609698112975,0.0
121.0,7.843067599103806,0.0
122.0,7.716998835827442,0.0
123.0,7.714647990591983,0.0
124.0,7.433642171798868,0.0
125.0,7.421015767340965,0.0
126.0,7.660408082160544,0.0
127.0,7.528347868868646,0.0
128.0,7.398915392287234,0.0
129.0,7.253630934877599,0.0
130.0,7.090493490087225,0.0
131.0,7.467559692707468,0.0
132.0,7.209618451747488,0.0
133.0,6.996724042486637,0.0
134.0,6.689638642554588,0.0
135.0,6.857610991660585,0.0
136.0,6.805857388263053,0.0
137.0,6.384972500040176,0.0
138.0,6.378449120420091,0.0
139.0,6.43910768818348,0.0
140.0,6.327064027177527,0.0
141.0,6.329965317502935,0.0
142.0,6.495093584060669,0.0
143.0,6.089949978158829,0.0
144.0,6.369562149047852,0.0
145.0,5.871667529674286,0.0
146.0,5.864897734307228,0.0
147.0,6.063826302264599,0.0
148.0,6.389524775616666,0.0
149.0,6.007689828568316,0.0
150.0,5.4022329982290875,0.0
151.0,5.585549343139567,0.0
152.0,5.8091712606714125,0.0
153.0,5.686696506561117,0.0
154.0,5.374493702929071,0.0
155.0,5.499519667726882,0.0
156.0,6.114306958431893,0.0
157.0,5.664476639412819,0.0
158.0,5.4103782341835345,0.0
159.0,4.698129444046224,0.0
160.0,4.7429939280165,0.0
161.0,4.963505099428461,0.0
162.0,4.980808988530585,0.0
163.0,4.870589763560194,0.0
164.0,4.749481950668579,0.0
165.0,5.065520281487323,0.0
166.0,4.631159661932195,0.0
167.0,4.469193643711983,0.0
168.0,4.617544566063171,0.0
169.0,4.710631971663617,0.0
170.0,5.364956285091156,0.0
171.0,4.742570835225125,0.0
172.0,4.988263348315624,0.0
173.0,4.547843447391023,0.0
174.0,4.705063170575081,0.0
175.0,4.669403944877868,0.0
176.0,4.718342349884358,0.0
177.0,4.221748056563925,0.0
178.0,4.867271930613416,0.0
179.0,5.44570695593002,0.0
180.0,4.752174174531977,0.0
181.0,4.252882706358077,0.0
182.0,4.209410546307868,0.0
183.0,4.054805448714723,0.0
184.0,4.083731855483765,0.0
185.0,4.773724725905885,0.0
186.0,4.585221969066782,0.0
187.0,4.256983932028425,0.0
188.0,4.513952280612702,0.0
0.0,4.025231873735469,0.0
