0.0,46.44353619520264,23.494240811372457
0.0,8.452289514001237,0.10330551577665102
1.0,8.307899577761022,0.10377708777784506
2.0,8.108795171384278,0.09407516881403649
3.0,8.048106427967484,0.09232335476281567
4.0,7.989878867121175,0.08926496874688702
5.0,7.9176271194345675,0.08286047614123832
6.0,7.852022309474042,0.07781712103644625
7.0,7.80099683211989,0.07415265104944746
