0.0,1708.9396850209178,0.0
1.0,195.34103734208722,0.0
2.0,132.4862732592924,0.0
3.0,96.0461421935156,0.0
4.0,92.13656259073642,0.0
5.0,68.92371650585912,0.0
6.0,57.3536680559072,0.0
7.0,48.800804636605974,0.0
8.0,42.53486444135752,0.0
9.0,37.55127216464698,0.0
10.0,34.30077022976346,0.0
11.0,32.29020136962702,0.0
12.0,30.63851440492481,0.0
13.0,28.76475193863543,0.0
14.0,27.49625274870131,0.0
15.0,25.63106692475056,0.0
16.0,24.36540755126702,0.0
17.0,22.358213269661483,0.0
18.0,20.90977055545697,0.0
19.0,20.229281033017507,0.0
20.0,19.17718508900929,0.0
21.0,19.138592838750455,0.0
22.0,20.288848393247942,0.0
23.0,16.78891714904534,0.0
24.0,17.47700342033135,0.0
25.0,17.08671932455934,0.0
26.0,14.765109657750699,0.0
27.0,16.576626689345748,0.0
28.0,14.415973979259224,0.0
29.0,16.19291316040259,0.0
30.0,16.642456557034464,0.0
31.0,14.79349850332786,0.0
32.0,16.368912339701083,0.0
33.0,14.247550951109993,0.0
34.0,14.24333867614652,0.0
35.0,14.230948316707533,0.0
36.0,15.556074232721524,0.0
37.0,14.232653965184719,0.0
38.0,13.964289752544198,0.0
39.0,15.13570345870752,0.0
40.0,15.111937546435698,0.0
41.0,12.35429528711264,0.0
42.0,14.444540845023262,0.0
43.0,16.007631632526223,0.0
44.0,13.907009538799647,0.0
45.0,13.08065650688768,0.0
46.0,14.510598510381126,0.0
47.0,14.595363275504406,0.0
48.0,13.332779453615101,0.0
49.0,12.08907709837941,0.0
50.0,12.026434759053673,0.0
51.0,11.329077130973094,0.0
52.0,12.684949360757207,0.0
53.0,12.019982290856632,0.0
54.0,12.184248285529055,0.0
55.0,12.544820663860305,0.0
56.0,12.874069650477344,0.0
57.0,12.211871443461979,0.0
58.0,12.241880195131028,0.0
59.0,12.331114561469466,0.0
60.0,11.789851778819237,0.0
61.0,11.31028878492583,0.0
62.0,11.978076254879987,0.0
63.0,11.445270444140021,0.0
64.0,10.790505564261856,0.0
65.0,10.570161454962115,0.0
66.0,10.044682808864264,0.0
67.0,9.858620091720864,0.0
68.0,11.491360735500791,0.0
69.0,9.348655660456592,0.0
70.0,10.225844546110052,0.0
71.0,9.697870399726272,0.0
72.0,9.7755214147607,0.0
73.0,9.861630514325428,0.0
74.0,7.845800225136212,0.0
75.0,8.682782350253666,0.0
76.0,8.695145441671459,0.0
77.0,9.518379573468808,0.0
78.0,8.957476061558037,0.0
79.0,7.585495783958906,0.0
80.0,9.722958809063758,0.0
81.0,8.840908186425889,0.0
82.0,8.242751905456982,0.0
83.0,7.727700647012687,0.0
84.0,6.747508942835616,0.0
85.0,7.399723867820614,0.0
86.0,6.98379637331629,0.0
87.0,9.470600262590887,0.0
88.0,7.218330703890373,0.0
89.0,6.973629794003051,0.0
90.0,8.025662782751484,0.0
91.0,6.534655067165202,0.0
92.0,7.534178472840737,0.0
93.0,6.861819219196775,0.0
94.0,5.876626226146525,0.0
95.0,7.601774182339264,0.0
96.0,7.176416883988636,0.0
97.0,6.477100363974708,0.0
98.0,6.054521810615995,0.0
99.0,5.931211553483343,0.0
100.0,6.272226381694338,0.0
101.0,5.808054269095997,0.0
102.0,8.07309277656147,0.0
103.0,6.058306131833866,0.0
104.0,5.271974886395804,0.0
105.0,5.396929040367221,0.0
106.0,5.895780920491788,0.0
107.0,5.15513241732562,0.0
108.0,6.50836236241423,0.0
109.0,5.325794450540111,0.0
110.0,5.154056337389926,0.0
111.0,5.668479693279345,0.0
112.0,5.158527180981734,0.0
113.0,5.971047877774808,0.0
114.0,5.738877916777575,0.0
115.0,5.366031420819553,0.0
116.0,5.232884771661994,0.0
117.0,7.106009302806462,0.0
118.0,5.497589045836602,0.0
119.0,4.871794021914526,0.0
120.0,5.684929174405557,0.0
121.0,4.499801674988044,0.0
122.0,4.731431499430181,0.0
123.0,4.999911594538041,0.0
124.0,6.844384243949451,0.0
125.0,5.097624391440011,0.0
126.0,4.528526439588257,0.0
127.0,4.902371327818176,0.0
128.0,4.997050291962093,0.0
129.0,4.292201820224401,0.0
130.0,4.198114461368984,0.0
131.0,4.194493480915886,0.0
132.0,3.797213603439645,0.0
133.0,6.379348384745327,0.0
134.0,4.431296642670415,0.0
135.0,5.134152503415881,0.0
136.0,5.363369099887801,0.0
137.0,5.0192236596174205,0.0
138.0,4.584697468781177,0.0
139.0,3.9401079023816457,0.0
140.0,4.264180061012629,0.0
141.0,4.421030624658482,0.0
142.0,4.684956269009123,0.0
143.0,3.4780530522389665,0.0
144.0,3.561113150276765,0.0
145.0,3.560430966286993,0.0
146.0,5.832483208719104,0.0
147.0,5.634614979043419,0.0
148.0,5.367532667309169,0.0
149.0,3.700134379137691,0.0
150.0,3.619673038583724,0.0
151.0,5.357052635754087,0.0
152.0,3.4447663107526645,0.0
153.0,3.1432749783551253,0.0
154.0,3.3480894958040843,0.0
155.0,3.4089867300948,0.0
156.0,3.510238746802012,0.0
157.0,3.849409105601134,0.0
158.0,4.3172028830021985,0.0
159.0,4.763547956207653,0.0
160.0,4.064174620457638,0.0
161.0,3.3858158579824393,0.0
162.0,4.1587880592287325,0.0
163.0,5.330771447209174,0.0
164.0,4.656700963836639,0.0
165.0,3.2472936442359486,0.0
166.0,4.032641339939808,0.0
167.0,3.6095084383654497,0.0
168.0,2.856189012650109,0.0
169.0,3.7860096101898226,0.0
170.0,3.6963056816485684,0.0
171.0,4.082392980532391,0.0
172.0,4.713039669970916,0.0
173.0,3.6953056209371904,0.0
174.0,5.2434020015437905,0.0
175.0,4.1987940620002435,0.0
176.0,2.887507698295538,0.0
177.0,3.1309492293699286,0.0
178.0,2.994557200881189,0.0
179.0,3.020319561899444,0.0
180.0,2.775832453872932,0.0
181.0,4.4924105115142865,0.0
182.0,4.031409206949634,0.0
183.0,2.6123480817663327,0.0
184.0,3.210223901541635,0.0
185.0,6.7319411358225,0.0
186.0,4.740689995112242,0.0
187.0,3.263749546965454,0.0
188.0,2.667821703379046,0.0
189.0,3.1791879961520064,0.0
190.0,2.740347609107877,0.0
191.0,3.6719201209613814,0.0
192.0,3.5220561684894953,0.0
193.0,3.3940719515698436,0.0
194.0,2.9852010443377397,0.0
195.0,3.1416958960486046,0.0
196.0,4.9540916894689015,0.0
197.0,3.1322598431581334,0.0
198.0,3.148807050269327,0.0
199.0,2.831495055691205,0.0
200.0,3.777783286179044,0.0
201.0,2.396197328106366,0.0
202.0,3.28197247783343,0.0
203.0,2.7904305659203863,0.0
204.0,4.030990707040323,0.0
205.0,3.0123867078573126,0.0
206.0,3.094757139069553,0.0
207.0,2.925466538334089,0.0
208.0,3.6865214715278687,0.0
209.0,4.492772214942509,0.0
210.0,3.2769820152977367,0.0
211.0,2.8868246153303625,0.0
212.0,2.4196075334715745,0.0
213.0,2.251206945980527,0.0
214.0,2.1462511313550268,0.0
215.0,2.871819931783794,0.0
216.0,2.8946712560369154,0.0
217.0,3.3231262477582373,0.0
218.0,3.779139691910135,0.0
219.0,2.6030777178919364,0.0
220.0,2.704783396465788,0.0
221.0,2.782064907712701,0.0
222.0,3.8382869728308155,0.0
223.0,2.4613207839276074,0.0
224.0,2.783277540417856,0.0
225.0,3.62377035715943,0.0
226.0,3.8445557929238174,0.0
227.0,2.6174859091823484,0.0
228.0,2.6725472414199216,0.0
229.0,2.684678100018835,0.0
230.0,2.5345434252126715,0.0
231.0,3.0177336295936334,0.0
232.0,3.6205368029727856,0.0
233.0,3.1783029240835843,0.0
234.0,3.897106598311491,0.0
235.0,2.1584688118455833,0.0
236.0,2.3273864027894575,0.0
237.0,2.545285862169148,0.0
238.0,3.7757097185884483,0.0
239.0,4.359919974342786,0.0
240.0,3.5218759787426075,0.0
241.0,4.515734968116744,0.0
242.0,2.7620859682069394,0.0
243.0,3.140992635439453,0.0
244.0,2.7294970526371474,0.0
245.0,2.070459569432608,0.0
246.0,2.106767980772772,0.0
247.0,2.984611803244171,0.0
248.0,2.3796690463283916,0.0
249.0,3.6384925776057773,0.0
250.0,2.905029482556959,0.0
251.0,2.2602374747456837,0.0
252.0,2.989835810268857,0.0
253.0,3.300616847634806,0.0
254.0,2.156120038449519,0.0
255.0,3.3231848098123025,0.0
256.0,3.7697788697701915,0.0
257.0,3.4832971581706293,0.0
258.0,2.6634980625331157,0.0
259.0,2.0688114594284888,0.0
260.0,2.377219209823098,0.0
261.0,2.9925220569465387,0.0
262.0,3.028898868418525,0.0
263.0,1.7850537536811437,0.0
264.0,1.9379794370735623,0.0
265.0,2.035019789335659,0.0
266.0,2.3771825046451003,0.0
267.0,3.5040837126504245,0.0
268.0,3.6322242693645963,0.0
269.0,2.8462868256824008,0.0
270.0,1.6703637978177013,0.0
271.0,2.022990902878129,0.0
272.0,3.1201905425438663,0.0
273.0,3.542166333630252,0.0
274.0,2.7691391950526847,0.0
275.0,3.404690522961165,0.0
276.0,2.2851431816203114,0.0
277.0,3.2487887833344105,0.0
278.0,3.603833184198097,0.0
279.0,2.6230855026117568,0.0
280.0,2.276732582491612,0.0
281.0,2.257919439685688,0.0
282.0,2.606847466142089,0.0
283.0,1.9829444225432942,0.0
284.0,2.996539454278632,0.0
285.0,3.1008578259267923,0.0
286.0,2.2884678324308907,0.0
287.0,1.6979321370154252,0.0
288.0,3.1460115133244315,0.0
289.0,2.01094367977523,0.0
290.0,2.194209001805066,0.0
291.0,3.8414033818146818,0.0
292.0,3.685964252968384,0.0
293.0,2.0067413608723705,0.0
294.0,3.7003970687036163,0.0
295.0,1.8138077926243283,0.0
296.0,1.831613257956603,0.0
297.0,2.3834882251029152,0.0
298.0,1.8810741060064653,0.0
299.0,2.0733249286810556,0.0
300.0,2.107187477772128,0.0
301.0,2.1125946430021845,0.0
302.0,2.9112687339017422,0.0
303.0,3.404317067606459,0.0
304.0,2.7187288428039706,0.0
305.0,1.9607672712194577,0.0
306.0,2.834638929538766,0.0
307.0,3.0173655940917294,0.0
308.0,2.1366560699517834,0.0
309.0,1.7737284281862125,0.0
310.0,4.016462992002935,0.0
311.0,2.223645809133357,0.0
312.0,2.6861043995545235,0.0
313.0,1.6623645385596977,0.0
314.0,2.299860601685175,0.0
315.0,2.7890747536602336,0.0
316.0,4.0869289924823695,0.0
317.0,2.300343926674054,0.0
318.0,1.7283328566776872,0.0
319.0,2.313643751075729,0.0
320.0,2.1413513111724773,0.0
321.0,2.5421919942883306,0.0
322.0,2.5857992445735776,0.0
323.0,2.490000939418259,0.0
324.0,2.633886412215331,0.0
325.0,2.235921240515179,0.0
326.0,1.6858728096318343,0.0
327.0,1.8209135715730886,0.0
328.0,4.442178628326934,0.0
329.0,2.0459687817734453,0.0
330.0,4.209088121912607,0.0
331.0,2.915448474540632,0.0
332.0,2.5999179683595037,0.0
333.0,2.11341729612998,0.0
334.0,2.2568141813140836,0.0
335.0,2.90548761599839,0.0
336.0,2.6711121017550243,0.0
337.0,3.192118369257499,0.0
338.0,2.227980816315231,0.0
339.0,1.8708286902909417,0.0
340.0,2.101492508080761,0.0
341.0,2.7337774564454587,0.0
342.0,2.488040842269183,0.0
343.0,1.6359656986630993,0.0
344.0,1.7196001645346237,0.0
345.0,2.021519054969152,0.0
346.0,3.3955853961622764,0.0
347.0,2.3536078061586543,0.0
348.0,2.849169181452857,0.0
349.0,1.9264652429784768,0.0
350.0,2.887997834402838,0.0
351.0,2.5189055970912118,0.0
352.0,2.0712134796405524,0.0
353.0,1.684881875483097,0.0
354.0,1.5547780875315882,0.0
355.0,1.3629065229568953,0.0
356.0,1.7376707821716497,0.0
357.0,4.908714869385394,0.0
358.0,3.481936894817117,0.0
359.0,2.3089838937354186,0.0
360.0,3.264034428959521,0.0
361.0,2.8706013333405,0.0
362.0,1.4842629908534235,0.0
363.0,3.6161156129935152,0.0
364.0,1.7230417210869338,0.0
365.0,1.5876891200925096,0.0
366.0,4.948282614288997,0.0
367.0,2.856972724199295,0.0
368.0,1.8822847962256812,0.0
369.0,1.9724332402027194,0.0
370.0,1.7748304179298535,0.0
371.0,3.7691453246422757,0.0
372.0,2.3461382341237718,0.0
373.0,2.132602135095086,0.0
374.0,1.4616435722068504,0.0
375.0,1.9869569188037528,0.0
376.0,3.3758199411164584,0.0
377.0,2.0564865802295906,0.0
378.0,2.181170564742736,0.0
379.0,1.9215696744712782,0.0
380.0,1.2718962170336963,0.0
381.0,2.2797484536475117,0.0
382.0,3.6963916494522566,0.0
383.0,1.6522667082371536,0.0
384.0,1.8443313637142809,0.0
385.0,3.983832654148463,0.0
386.0,4.892065260881259,0.0
387.0,2.2366878195309345,0.0
388.0,1.6715265344445107,0.0
389.0,1.8336295205869793,0.0
390.0,2.777286350481795,0.0
391.0,2.0679550963174167,0.0
392.0,1.508260826024499,0.0
393.0,1.1162484968272748,0.0
394.0,3.715518414728926,0.0
395.0,3.2706286956253368,0.0
396.0,2.2623537756778576,0.0
397.0,2.4417711599373524,0.0
398.0,1.7899306745195585,0.0
399.0,1.1984700340425036,0.0
400.0,2.6523751094630716,0.0
401.0,2.3143217888633902,0.0
402.0,2.847541245781345,0.0
403.0,2.1630123485753567,0.0
404.0,1.514070360258283,0.0
405.0,1.6445912710187858,0.0
406.0,2.094932522425436,0.0
407.0,3.684180048267537,0.0
408.0,2.8387714619499174,0.0
409.0,2.8961415805934387,0.0
410.0,3.048747107202624,0.0
411.0,1.5387931337327132,0.0
412.0,1.58849789747976,0.0
413.0,2.409577131884579,0.0
414.0,1.662017347513403,0.0
415.0,1.3425726329470857,0.0
416.0,3.8663754325835304,0.0
417.0,1.7305867298517699,0.0
418.0,1.57392089455216,0.0
419.0,1.5994946264926297,0.0
420.0,1.3945140758904901,0.0
421.0,4.902076834145888,0.0
422.0,3.8305784866152477,0.0
423.0,2.265925724442604,0.0
424.0,1.903095246587761,0.0
425.0,1.395606499517896,0.0
426.0,1.1401073491131817,0.0
427.0,1.4773672069786998,0.0
428.0,1.6850501760043235,0.0
429.0,1.5493580941800718,0.0
430.0,1.992990813566824,0.0
431.0,3.242845402332981,0.0
432.0,3.2134660295988797,0.0
433.0,1.826748867400389,0.0
434.0,1.4290466351518907,0.0
435.0,0.9632317418914763,0.0
436.0,1.4283440883267564,0.0
437.0,2.088692533381191,0.0
438.0,3.813384649071674,0.0
439.0,1.8524508203375978,0.0
440.0,1.5777884448874635,0.0
441.0,2.311602909746484,0.0
442.0,2.1868797996897755,0.0
443.0,1.886691221729718,0.0
444.0,1.7856290908262071,0.0
445.0,3.344655078134419,0.0
446.0,2.293646869345457,0.0
447.0,3.8148024863421672,0.0
448.0,1.61662740349279,0.0
449.0,1.163274577431718,0.0
450.0,1.164850791540656,0.0
451.0,2.545610309505659,0.0
452.0,2.2639268256815863,0.0
453.0,1.4382999463949675,0.0
454.0,1.1518251879960912,0.0
455.0,1.1108000901500874,0.0
456.0,1.2879846227880367,0.0
457.0,1.5344273929978594,0.0
458.0,3.0378255265239824,0.0
459.0,2.912920649404879,0.0
460.0,2.3369747589154497,0.0
461.0,1.8094974888695612,0.0
462.0,1.988494926274068,0.0
463.0,2.4426849100570127,0.0
464.0,1.6207014961865704,0.0
465.0,1.5936021197725225,0.0
466.0,1.4756467135722746,0.0
467.0,3.1591768429112532,0.0
468.0,1.4523312592334707,0.0
469.0,1.801192759118453,0.0
470.0,1.7156108645377335,0.0
471.0,1.812648575615,0.0
472.0,1.7200888150022844,0.0
473.0,3.02129850429272,0.0
474.0,2.429411551711981,0.0
475.0,1.5345362661552038,0.0
476.0,1.8967159462809071,0.0
477.0,1.6080945097369912,0.0
478.0,0.944411873081584,0.0
479.0,2.603661286242214,0.0
480.0,2.2328604230419598,0.0
481.0,2.7421516668158796,0.0
482.0,2.108687994902026,0.0
483.0,1.768482984706698,0.0
484.0,1.7635311708774095,0.0
485.0,3.130609331307588,0.0
486.0,1.732058413725331,0.0
487.0,1.065329742223147,0.0
488.0,1.1210192779822605,0.0
489.0,1.8619251816606326,0.0
490.0,2.170572847741131,0.0
491.0,1.2822210211076854,0.0
492.0,1.083478943188004,0.0
493.0,5.873134190653578,0.0
494.0,2.299494308821949,0.0
495.0,1.8523355388837586,0.0
496.0,1.939060473638307,0.0
497.0,1.9324537838192144,0.0
498.0,2.563872831716459,0.0
499.0,1.4430367909831765,0.0
500.0,1.1033195692570612,0.0
501.0,0.9442897064327703,0.0
502.0,2.137138869168827,0.0
503.0,1.7249506022091265,0.0
504.0,1.5362503105475578,0.0
505.0,2.0438206372437655,0.0
506.0,3.2725774569766513,0.0
507.0,1.4687093936612086,0.0
508.0,1.4731398390399084,0.0
509.0,3.385751561372859,0.0
510.0,1.9995815501291565,0.0
511.0,2.6015922306986994,0.0
512.0,2.430682325436745,0.0
513.0,1.7845522690211795,0.0
514.0,1.7039637124096905,0.0
515.0,1.3045229919162797,0.0
516.0,1.5434835570339314,0.0
517.0,1.8890049403586997,0.0
518.0,3.0625680558720734,0.0
519.0,3.1947167779437797,0.0
520.0,2.1675959252771526,0.0
521.0,1.6434949619289287,0.0
522.0,1.1839504923226902,0.0
523.0,1.791511443416768,0.0
524.0,2.9700826936297946,0.0
525.0,1.5571712148778232,0.0
526.0,1.3840411690527519,0.0
527.0,2.3915165764559445,0.0
528.0,2.922351260857327,0.0
529.0,2.4038155901211278,0.0
530.0,1.7186380232312553,0.0
531.0,1.5394160884275359,0.0
532.0,1.3199085696243946,0.0
533.0,1.6439051491978727,0.0
534.0,1.1202909606719704,0.0
535.0,1.302685460558644,0.0
536.0,1.1752254223995249,0.0
537.0,0.9932888365454144,0.0
538.0,2.94377730363681,0.0
539.0,3.6860181857283716,0.0
540.0,2.3993349137865465,0.0
541.0,2.471927158503866,0.0
542.0,1.782300586195149,0.0
543.0,2.9234332297564536,0.0
544.0,1.6494488954053494,0.0
545.0,1.2177055882512298,0.0
546.0,1.0697462280346042,0.0
547.0,1.4750222417184846,0.0
548.0,2.6505341644517677,0.0
549.0,2.1281001576425607,0.0
550.0,3.9235024745326963,0.0
551.0,2.0615803846483858,0.0
552.0,1.701396665884634,0.0
553.0,1.1835607477912196,0.0
554.0,1.379783026414153,0.0
555.0,1.45056160775477,0.0
556.0,1.4731285922811845,0.0
557.0,9.224744664359486,0.0
558.0,3.6470146076178844,0.0
559.0,2.2944723782225402,0.0
560.0,1.9349051532431394,0.0
561.0,1.2880050885211294,0.0
562.0,1.2001214988928273,0.0
563.0,1.7114665379494796,0.0
564.0,1.7249327752079984,0.0
565.0,1.5118480322292311,0.0
566.0,1.3383400892769848,0.0
567.0,1.0949076008158947,0.0
568.0,1.5699890664330236,0.0
569.0,2.7872207228538923,0.0
570.0,2.620605701772274,0.0
571.0,1.7358135217992368,0.0
572.0,1.4921837045577329,0.0
573.0,1.64072317498211,0.0
574.0,1.362111774491675,0.0
575.0,2.0867437200291166,0.0
576.0,3.5189716893213765,0.0
577.0,1.5474995333900667,0.0
578.0,1.2156048938325403,0.0
579.0,2.7790517322565793,0.0
580.0,1.4281023039861962,0.0
581.0,1.2083876171597727,0.0
582.0,1.120800129180092,0.0
583.0,1.0158010620025941,0.0
584.0,1.7327151493525799,0.0
585.0,2.48154806820944,0.0
586.0,2.9513892050633213,0.0
587.0,1.4131334038305674,0.0
588.0,1.2992146734470202,0.0
589.0,3.5202799949013155,0.0
590.0,3.804199701719323,0.0
591.0,2.095128735519731,0.0
592.0,1.254771562515463,0.0
593.0,1.017802714688297,0.0
594.0,0.8794553498181786,0.0
595.0,1.5390919363547746,0.0
596.0,2.194844946203899,0.0
597.0,1.7026681939270272,0.0
598.0,1.5341656009969398,0.0
599.0,1.118735697227741,0.0
600.0,2.0722546373252517,0.0
601.0,2.8617057271700337,0.0
602.0,2.0359185081695825,0.0
603.0,1.3719550598060153,0.0
604.0,1.4813581470844677,0.0
605.0,2.332262951160164,0.0
606.0,1.8380135078243758,0.0
607.0,1.2068486675436114,0.0
608.0,0.9881370991713716,0.0
609.0,2.7199992565706435,0.0
610.0,1.3813313627193984,0.0
611.0,1.0020905480463318,0.0
612.0,2.0033280122182004,0.0
613.0,1.3838939099522776,0.0
614.0,1.76562033756157,0.0
615.0,1.631884357136954,0.0
616.0,4.476424664136314,0.0
617.0,2.409200305310787,0.0
618.0,1.526968783005275,0.0
619.0,1.3408238190559694,0.0
620.0,1.3768118767704003,0.0
621.0,1.4116649991936154,0.0
622.0,1.385904656700146,0.0
623.0,3.2113684335485897,0.0
624.0,3.1630874008798795,0.0
625.0,1.9662611215938757,0.0
626.0,0.9846595547204156,0.0
627.0,1.202377049888603,0.0
628.0,1.4088940665187168,0.0
629.0,1.430711700960442,0.0
630.0,1.1281873933940267,0.0
631.0,0.9332772948982294,0.0
632.0,0.9344417131486743,0.0
633.0,1.1709469461146695,0.0
634.0,2.4351956178376706,0.0
635.0,2.258426629957348,0.0
636.0,3.938606251537064,0.0
637.0,1.7617149746099128,0.0
638.0,1.7163997312141543,0.0
639.0,2.153676381326997,0.0
640.0,1.2479400356365329,0.0
641.0,1.1694997178674236,0.0
642.0,1.25285636538586,0.0
643.0,1.7217894211227511,0.0
644.0,2.054695727403272,0.0
645.0,1.3892244510812524,0.0
646.0,1.936609789974405,0.0
647.0,4.040331701314989,0.0
648.0,1.6224085773214882,0.0
649.0,2.8272463471433262,0.0
650.0,1.6897691217224293,0.0
651.0,1.362533211830712,0.0
652.0,2.261192548790096,0.0
653.0,1.5009245660324646,0.0
654.0,1.1236502222195575,0.0
655.0,0.9643199695235908,0.0
656.0,1.2364673360017102,0.0
657.0,2.0085699284150276,0.0
658.0,1.5951008495602588,0.0
659.0,1.3395807403350564,0.0
660.0,0.8438511043787003,0.0
661.0,1.6630090018849315,0.0
662.0,3.477621606838556,0.0
663.0,3.0131829248534308,0.0
664.0,4.1188152702256975,0.0
665.0,3.47455981079443,0.0
666.0,1.4854335609532188,0.0
667.0,1.181326990080959,0.0
668.0,1.104156188390873,0.0
669.0,0.7627259026216381,0.0
670.0,1.4603833867076002,0.0
671.0,2.1846273438430126,0.0
672.0,1.4166453564731183,0.0
673.0,1.2987216295896735,0.0
674.0,1.4260391161275008,0.0
675.0,2.042674371367129,0.0
676.0,1.9179790909152954,0.0
677.0,1.4594174556035564,0.0
678.0,1.3107112251191473,0.0
679.0,1.1789708339260438,0.0
680.0,3.430190327236191,0.0
681.0,2.587061703143787,0.0
682.0,1.9981095341988553,0.0
683.0,1.6187643769346638,0.0
684.0,1.049327922701345,0.0
685.0,1.0804124381316542,0.0
686.0,1.005300079230909,0.0
687.0,1.4662173424728613,0.0
688.0,2.2375834502065133,0.0
689.0,1.9086225531964636,0.0
690.0,1.3517435470848909,0.0
691.0,1.1823630968239083,0.0
692.0,2.010182341369091,0.0
693.0,2.161373059752056,0.0
694.0,1.7552552750878374,0.0
695.0,2.1731743471612655,0.0
696.0,2.8923851913876004,0.0
697.0,2.7483220220593267,0.0
698.0,1.284281522158242,0.0
699.0,1.5716864573366849,0.0
700.0,1.4025783716037932,0.0
701.0,1.5422924191004945,0.0
702.0,1.8687876876857545,0.0
703.0,1.7556667435806965,0.0
704.0,1.6666581693254872,0.0
705.0,2.6090867274092058,0.0
706.0,2.1311617506507003,0.0
707.0,2.2248696304643105,0.0
708.0,1.0357720991711559,0.0
709.0,1.3346438510918324,0.0
710.0,1.942452149013433,0.0
711.0,2.164985564878448,0.0
712.0,1.6034239128293324,0.0
713.0,1.9565750209637631,0.0
714.0,1.0994520725782027,0.0
715.0,0.9243823329117072,0.0
716.0,1.2698700112815746,0.0
717.0,2.05107345355391,0.0
718.0,2.4438505066643037,0.0
719.0,1.3228006751694306,0.0
720.0,1.4823575599939245,0.0
721.0,0.898966795316449,0.0
722.0,1.0939632295458406,0.0
723.0,1.04956357135081,0.0
724.0,1.3582277006082575,0.0
725.0,6.536517277237319,0.0
726.0,3.0843934453563926,0.0
727.0,1.7006367323575196,0.0
728.0,1.5400634887532443,0.0
729.0,0.9720059567027621,0.0
730.0,1.2987514078126523,0.0
731.0,1.8899786864165906,0.0
732.0,2.253093578197338,0.0
733.0,1.3792958100759443,0.0
734.0,1.3409984699860522,0.0
735.0,1.519642689775047,0.0
736.0,1.2546866760577684,0.0
737.0,1.0658191827589591,0.0
738.0,0.8040444626484389,0.0
739.0,2.6593942751364454,0.0
740.0,2.811029738236847,0.0
741.0,1.5371299340033238,0.0
742.0,1.179599288191815,0.0
743.0,1.0634129905896912,0.0
744.0,2.445666930067196,0.0
745.0,2.4043218276382965,0.0
746.0,2.896283203191718,0.0
747.0,1.9026692777013583,0.0
748.0,1.051911420231003,0.0
749.0,1.9239392070858568,0.0
750.0,0.9077939840010655,0.0
751.0,1.0720647733520579,0.0
752.0,1.3651491467967445,0.0
753.0,2.9355485373073154,0.0
754.0,1.8778447771268616,0.0
755.0,1.4199156657535843,0.0
756.0,1.9924174220351034,0.0
757.0,1.6946058266570048,0.0
758.0,1.5010747571050385,0.0
759.0,2.0921349742530304,0.0
760.0,1.0211675786432415,0.0
761.0,0.8761906138172856,0.0
0.0,3579219.7397573967,0.0
1.0,707.5722199742196,0.0
2.0,430.5114876076027,0.0
3.0,288.029824417805,0.0
4.0,183.0528306843322,0.0
5.0,133.681158481802,0.0
6.0,106.66206596908255,0.0
7.0,85.32695288324553,0.0
8.0,74.54641920647013,0.0
9.0,64.74354608951772,0.0
10.0,59.00443719149617,0.0
11.0,54.75114822780154,0.0
12.0,51.58350525373294,0.0
13.0,48.92415977603614,0.0
14.0,46.638635957192,0.0
15.0,44.34000919875785,0.0
16.0,42.41822367538641,0.0
17.0,40.74522063957811,0.0
18.0,39.06978810471272,0.0
19.0,37.90683735349051,0.0
20.0,36.77427090146414,0.0
21.0,35.4884721712811,0.0
22.0,34.05816036192969,0.0
23.0,32.7450552908972,0.0
24.0,31.402644828513818,0.0
25.0,30.591931303832755,0.0
26.0,29.894646244284548,0.0
27.0,28.343009683820938,0.0
28.0,28.00164146580323,0.0
29.0,27.530719256695406,0.0
30.0,25.869109032085404,0.0
31.0,25.014995902654075,0.0
32.0,24.615526756631983,0.0
33.0,23.838280977045066,0.0
34.0,23.40260533737057,0.0
35.0,23.67423823046586,0.0
36.0,23.954216640181993,0.0
37.0,22.912190374523522,0.0
38.0,20.89035236295849,0.0
39.0,21.3127966476566,0.0
40.0,19.74279866395173,0.0
41.0,21.14841248959671,0.0
42.0,19.935099996166464,0.0
43.0,19.681589515120894,0.0
44.0,18.305155807071262,0.0
45.0,18.21475223749263,0.0
46.0,19.232366634494483,0.0
47.0,18.714881326926587,0.0
48.0,17.81977809800042,0.0
49.0,18.031787155096424,0.0
50.0,17.204538613189886,0.0
51.0,25.457739669109078,0.0
52.0,21.121897742581467,0.0
53.0,18.32367587580112,0.0
54.0,16.476819598625717,0.0
55.0,16.74007854294875,0.0
56.0,17.197579099317636,0.0
57.0,16.151437583774207,0.0
58.0,18.553684204203602,0.0
59.0,16.09477777539948,0.0
60.0,17.431685326030717,0.0
61.0,17.897132217148204,0.0
62.0,17.139918305255748,0.0
63.0,15.150904489642798,0.0
64.0,17.312169109352332,0.0
65.0,15.85036487245756,0.0
66.0,17.060679195839683,0.0
67.0,16.00272569146176,0.0
68.0,16.030664715747285,0.0
69.0,16.774687978956436,0.0
70.0,14.784151220517884,0.0
71.0,16.558807439274258,0.0
72.0,15.763382327900011,0.0
73.0,16.56323055769681,0.0
74.0,16.366856948828993,0.0
75.0,16.109719137105433,0.0
76.0,17.18717537593449,0.0
77.0,17.821575084340918,0.0
78.0,14.244358253086546,0.0
79.0,16.584520881558642,0.0
80.0,18.819774921048325,0.0
81.0,15.253874228324419,0.0
82.0,18.028541689547,0.0
83.0,15.353330932526921,0.0
84.0,16.7395326011956,0.0
85.0,15.417200499601325,0.0
86.0,15.691594031612569,0.0
87.0,15.762291052704485,0.0
88.0,16.39528443391431,0.0
89.0,15.280992345064265,0.0
90.0,17.269690326211876,0.0
91.0,14.515377082942445,0.0
92.0,14.798654173627313,0.0
93.0,15.45518750908934,0.0
94.0,13.931493539378476,0.0
95.0,14.44039749314265,0.0
96.0,14.419181203645934,0.0
97.0,13.824595460185298,0.0
98.0,14.58760873280435,0.0
99.0,13.477133814690044,0.0
100.0,15.250017817618916,0.0
101.0,14.213764554679148,0.0
102.0,15.416377233379663,0.0
103.0,14.742932640475992,0.0
104.0,13.113436648875107,0.0
105.0,13.823554388289589,0.0
106.0,14.891058068216584,0.0
107.0,12.263345362718214,0.0
108.0,12.739221201021484,0.0
109.0,12.79378474298328,0.0
110.0,12.011856224311233,0.0
111.0,12.256797944567332,0.0
112.0,12.884064292220913,0.0
113.0,12.386919461160039,0.0
114.0,12.247027944635462,0.0
115.0,13.019467030042483,0.0
116.0,12.568754791232294,0.0
117.0,11.733106050962283,0.0
118.0,11.322330600440257,0.0
119.0,10.22054045730167,0.0
120.0,11.931255758053972,0.0
121.0,10.572032883824635,0.0
122.0,10.060783143887305,0.0
123.0,12.393679203810516,0.0
124.0,12.050411910186579,0.0
125.0,9.80616989744053,0.0
126.0,9.548248077616279,0.0
127.0,11.36154533315588,0.0
128.0,11.242880309069598,0.0
129.0,9.7874620691739,0.0
130.0,8.493988831837973,0.0
131.0,9.87921239073875,0.0
132.0,9.261161814010682,0.0
133.0,10.246131551609118,0.0
134.0,10.010250634126702,0.0
135.0,11.685904229128802,0.0
136.0,9.465608989260325,0.0
