0.0,137.42191604331688
1.0,0.0,52.19660606698244
2.0,0.0,67.38610358689547
3.0,0.0,50.90787753352412
4.0,0.0,51.69268406369559
5.0,0.0,51.32911405053159
6.0,0.0,51.165063626481675
7.0,0.0,51.06031878985495
